%YAML 1.1
%TAG !u! tag:unity3d.com,2011:
--- !u!1045 &1
EditorBuildSettings:
  m_ObjectHideFlags: 0
  serializedVersion: 2
  m_Scenes:
  - enabled: 0
    path: Assets/Scenes/Mainmenu.unity
    guid: 2cda990e2423bbf4892e6590ba056729
  - enabled: 1
    path: "Assets/Scenes/SuMen\xFA.unity"
    guid: 9004f5d8ad428164097ee591f6fa6555
  - enabled: 1
    path: Assets/Scenes/JuegoVirus.unity
    guid: 159db06e939451c4aa27cfb774aa854d
  - enabled: 1
    path: Assets/Scenes/MainMenu.unity
    guid: e84c9862265a1104a9d724503d4111aa
  m_configObjects: {}
